{
  "consumer": {
    "name": "Consumer"
  },
  "provider": {
    "name": "Provider"
  },
  "interactions": [
    {
      "description": null,
      "request": {
        "method": "POST",
        "path": "/send_email/",
        "headers": {
          "Content-Type": "application/json"
        },
        "body": {
          "sender": "tesddt",
          "recipient": "tesdt@test.cz",
          "message": "tesadasdasdst",
          "subject": "test"
        }
      },
      "response": {
        "status": 204,
        "headers": {
        }
      }
    }
  ],
  "metadata": {
    "pactSpecification": {
      "version": "2.0.0"
    }
  }
}